^D:\C4\VisualStudio2013\C4\OpenGexImporter\OpenGexImporter.vcxproj
D:\C4\VisualStudio2013\C4\Win32\Debug\OpenGexImporter.lib
D:\C4\VisualStudio2013\C4\Win32\Debug\OpenGexImporter.exp
^Tool_OpenGexImporter
D:\C4\Plugins\Tools\Editor\OpenGexImporter.dll
^D:\C4\VisualStudio2013\C4\OpenGexImporter\OpenGexImporter.vcxproj
D:\C4\VisualStudio2013\C4\Win32\Debug\OpenGexImporter.lib
D:\C4\VisualStudio2013\C4\Win32\Debug\OpenGexImporter.exp
^Tool_OpenGexImporter
D:\C4\Plugins\Tools\Editor\OpenGexImporter.dll
^Tool_OpenGexImporter
D:\C4\Plugins\Tools\Editor\OpenGexImporter.dll
