^D:\C4\VISUALSTUDIO2013\C4\SIMPLEBALL\WIN32\DEBUG\SIMPLEBALL.OBJ
D:\C4\VISUALSTUDIO2013\C4\WIN32\DEBUG\SIMPLEBALL.DLL
D:\C4\VISUALSTUDIO2013\C4\WIN32\DEBUG\SIMPLEBALL.MAP
D:\C4\VISUALSTUDIO2013\C4\WIN32\DEBUG\SIMPLEBALL.PDB
