^D:\C4\PLUGINCODE\C4SOUNDIMPORTER.CPP
/c /I..\..\..\EngineCode /Zi /nologo /W3 /WX- /Od /Ob1 /Oi /Ot /Oy- /D C4DEBUG /D C4WINDOWS /GF /Gm- /MT /GS- /Gy- /Qpar- /arch:SSE2 /fp:precise /fp:except- /Zc:wchar_t /Zc:forScope /GR- /openmp- /Fo"WIN32\DEBUG\\" /Fd"WIN32\DEBUG\VC120.PDB" /Gd /TP /analyze- D:\C4\PLUGINCODE\C4SOUNDIMPORTER.CPP
^D:\C4\PLUGINCODE\C4SOUNDPLAYER.CPP
/c /I..\..\..\EngineCode /Zi /nologo /W3 /WX- /Od /Ob1 /Oi /Ot /Oy- /D C4DEBUG /D C4WINDOWS /GF /Gm- /MT /GS- /Gy- /Qpar- /arch:SSE2 /fp:precise /fp:except- /Zc:wchar_t /Zc:forScope /GR- /openmp- /Fo"WIN32\DEBUG\\" /Fd"WIN32\DEBUG\VC120.PDB" /Gd /TP /analyze- D:\C4\PLUGINCODE\C4SOUNDPLAYER.CPP
^D:\C4\PLUGINCODE\C4SOUNDTOOL.CPP
/c /I..\..\..\EngineCode /Zi /nologo /W3 /WX- /Od /Ob1 /Oi /Ot /Oy- /D C4DEBUG /D C4WINDOWS /GF /Gm- /MT /GS- /Gy- /Qpar- /arch:SSE2 /fp:precise /fp:except- /Zc:wchar_t /Zc:forScope /GR- /openmp- /Fo"WIN32\DEBUG\\" /Fd"WIN32\DEBUG\VC120.PDB" /Gd /TP /analyze- D:\C4\PLUGINCODE\C4SOUNDTOOL.CPP
