^D:\C4\PLUGINCODE\C4SOUNDIMPORTER.CPP|D:\C4\PLUGINCODE\C4SOUNDPLAYER.CPP|D:\C4\PLUGINCODE\C4SOUNDTOOL.CPP
D:\C4\VISUALSTUDIO2013\C4\SOUNDTOOL\WIN32\DEBUG\C4SOUNDPLAYER.OBJ
D:\C4\VISUALSTUDIO2013\C4\SOUNDTOOL\WIN32\DEBUG\C4SOUNDIMPORTER.OBJ
D:\C4\VISUALSTUDIO2013\C4\SOUNDTOOL\WIN32\DEBUG\C4SOUNDTOOL.OBJ
^D:\C4\PLUGINCODE\C4SOUNDIMPORTER.CPP
D:\C4\VISUALSTUDIO2013\C4\SOUNDTOOL\WIN32\DEBUG\VC120.PDB
^D:\C4\PLUGINCODE\C4SOUNDPLAYER.CPP
D:\C4\VISUALSTUDIO2013\C4\SOUNDTOOL\WIN32\DEBUG\VC120.PDB
^D:\C4\PLUGINCODE\C4SOUNDTOOL.CPP
D:\C4\VISUALSTUDIO2013\C4\SOUNDTOOL\WIN32\DEBUG\VC120.PDB
