^D:\C4\VISUALSTUDIO2013\C4\WORLDEDITOR\WIN32\DEBUG\C4CAMERAMANIPULATORS.OBJ|D:\C4\VISUALSTUDIO2013\C4\WORLDEDITOR\WIN32\DEBUG\C4EDITORBASE.OBJ|D:\C4\VISUALSTUDIO2013\C4\WORLDEDITOR\WIN32\DEBUG\C4EDITORCOMMANDS.OBJ|D:\C4\VISUALSTUDIO2013\C4\WORLDEDITOR\WIN32\DEBUG\C4EDITORCONNECTORS.OBJ|D:\C4\VISUALSTUDIO2013\C4\WORLDEDITOR\WIN32\DEBUG\C4EDITORGIZMO.OBJ|D:\C4\VISUALSTUDIO2013\C4\WORLDEDITOR\WIN32\DEBUG\C4EDITORMANIPULATORS.OBJ|D:\C4\VISUALSTUDIO2013\C4\WORLDEDITOR\WIN32\DEBUG\C4EDITOROPERATIONS.OBJ|D:\C4\VISUALSTUDIO2013\C4\WORLDEDITOR\WIN32\DEBUG\C4EDITORPAGES.OBJ|D:\C4\VISUALSTUDIO2013\C4\WORLDEDITOR\WIN32\DEBUG\C4EDITORPLUGINS.OBJ|D:\C4\VISUALSTUDIO2013\C4\WORLDEDITOR\WIN32\DEBUG\C4EDITORSUPPORT.OBJ|D:\C4\VISUALSTUDIO2013\C4\WORLDEDITOR\WIN32\DEBUG\C4EDITORTOOLS.OBJ|D:\C4\VISUALSTUDIO2013\C4\WORLDEDITOR\WIN32\DEBUG\C4EDITORVIEWPORTS.OBJ|D:\C4\VISUALSTUDIO2013\C4\WORLDEDITOR\WIN32\DEBUG\C4EFFECTMANIPULATORS.OBJ|D:\C4\VISUALSTUDIO2013\C4\WORLDEDITOR\WIN32\DEBUG\C4EMITTERMANIPULATORS.OBJ|D:\C4\VISUALSTUDIO2013\C4\WORLDEDITOR\WIN32\DEBUG\C4GEOMETRYMANIPULATORS.OBJ|D:\C4\VISUALSTUDIO2013\C4\WORLDEDITOR\WIN32\DEBUG\C4INSTANCEMANIPULATORS.OBJ|D:\C4\VISUALSTUDIO2013\C4\WORLDEDITOR\WIN32\DEBUG\C4LANDSCAPING.OBJ|D:\C4\VISUALSTUDIO2013\C4\WORLDEDITOR\WIN32\DEBUG\C4LIGHTMANIPULATORS.OBJ|D:\C4\VISUALSTUDIO2013\C4\WORLDEDITOR\WIN32\DEBUG\C4MARKERMANIPULATORS.OBJ|D:\C4\VISUALSTUDIO2013\C4\WORLDEDITOR\WIN32\DEBUG\C4MATERIALCONTAINER.OBJ|D:\C4\VISUALSTUDIO2013\C4\WORLDEDITOR\WIN32\DEBUG\C4MATERIALMANAGER.OBJ|D:\C4\VISUALSTUDIO2013\C4\WORLDEDITOR\WIN32\DEBUG\C4MODELMANIPULATORS.OBJ|D:\C4\VISUALSTUDIO2013\C4\WORLDEDITOR\WIN32\DEBUG\C4MODELVIEWER.OBJ|D:\C4\VISUALSTUDIO2013\C4\WORLDEDITOR\WIN32\DEBUG\C4NODEINFO.OBJ|D:\C4\VISUALSTUDIO2013\C4\WORLDEDITOR\WIN32\DEBUG\C4PANELEDITOR.OBJ|D:\C4\VISUALSTUDIO2013\C4\WORLDEDITOR\WIN32\DEBUG\C4PHYSICSMANIPULATORS.OBJ|D:\C4\VISUALSTUDIO2013\C4\WORLDEDITOR\WIN32\DEBUG\C4PORTALMANIPULATORS.OBJ|D:\C4\VISUALSTUDIO2013\C4\WORLDEDITOR\WIN32\DEBUG\C4SCRIPTEDITOR.OBJ|D:\C4\VISUALSTUDIO2013\C4\WORLDEDITOR\WIN32\DEBUG\C4SHADEREDITOR.OBJ|D:\C4\VISUALSTUDIO2013\C4\WORLDEDITOR\WIN32\DEBUG\C4SOURCEMANIPULATORS.OBJ|D:\C4\VISUALSTUDIO2013\C4\WORLDEDITOR\WIN32\DEBUG\C4SPACEMANIPULATORS.OBJ|D:\C4\VISUALSTUDIO2013\C4\WORLDEDITOR\WIN32\DEBUG\C4TERRAINBUILDERS.OBJ|D:\C4\VISUALSTUDIO2013\C4\WORLDEDITOR\WIN32\DEBUG\C4TERRAINTOOLS.OBJ|D:\C4\VISUALSTUDIO2013\C4\WORLDEDITOR\WIN32\DEBUG\C4TRIGGERMANIPULATORS.OBJ|D:\C4\VISUALSTUDIO2013\C4\WORLDEDITOR\WIN32\DEBUG\C4VOLUMEMANIPULATORS.OBJ|D:\C4\VISUALSTUDIO2013\C4\WORLDEDITOR\WIN32\DEBUG\C4WATERTOOLS.OBJ|D:\C4\VISUALSTUDIO2013\C4\WORLDEDITOR\WIN32\DEBUG\C4WORLDEDITOR.OBJ|D:\C4\VISUALSTUDIO2013\C4\WORLDEDITOR\WIN32\DEBUG\C4ZONEMANIPULATORS.OBJ
D:\C4\VISUALSTUDIO2013\C4\WIN32\DEBUG\WORLDEDITOR.DLL
D:\C4\VISUALSTUDIO2013\C4\WIN32\DEBUG\WORLDEDITOR.MAP
D:\C4\VISUALSTUDIO2013\C4\WIN32\DEBUG\WORLDEDITOR.PDB
