^D:\C4\PLUGINCODE\C4TERRAINPALETTE.CPP
/c /I..\..\..\EngineCode /Zi /nologo /W3 /WX- /Od /Ob1 /Oi /Ot /Oy- /D C4TEXTURE /D C4DEBUG /D C4WINDOWS /GF /Gm- /MT /GS- /Gy- /Qpar- /arch:SSE2 /fp:precise /fp:except- /Zc:wchar_t /Zc:forScope /GR- /openmp- /Fo"WIN32\DEBUG\\" /Fd"WIN32\DEBUG\VC120.PDB" /Gd /TP /analyze- D:\C4\PLUGINCODE\C4TERRAINPALETTE.CPP
^D:\C4\PLUGINCODE\C4TEXTUREGENERATOR.CPP
/c /I..\..\..\EngineCode /Zi /nologo /W3 /WX- /Od /Ob1 /Oi /Ot /Oy- /D C4TEXTURE /D C4DEBUG /D C4WINDOWS /GF /Gm- /MT /GS- /Gy- /Qpar- /arch:SSE2 /fp:precise /fp:except- /Zc:wchar_t /Zc:forScope /GR- /openmp- /Fo"WIN32\DEBUG\\" /Fd"WIN32\DEBUG\VC120.PDB" /Gd /TP /analyze- D:\C4\PLUGINCODE\C4TEXTUREGENERATOR.CPP
^D:\C4\PLUGINCODE\C4TEXTUREIMPORTER.CPP
/c /I..\..\..\EngineCode /Zi /nologo /W3 /WX- /Od /Ob1 /Oi /Ot /Oy- /D C4TEXTURE /D C4DEBUG /D C4WINDOWS /GF /Gm- /MT /GS- /Gy- /Qpar- /arch:SSE2 /fp:precise /fp:except- /Zc:wchar_t /Zc:forScope /GR- /openmp- /Fo"WIN32\DEBUG\\" /Fd"WIN32\DEBUG\VC120.PDB" /Gd /TP /analyze- D:\C4\PLUGINCODE\C4TEXTUREIMPORTER.CPP
^D:\C4\PLUGINCODE\C4TEXTURETOOL.CPP
/c /I..\..\..\EngineCode /Zi /nologo /W3 /WX- /Od /Ob1 /Oi /Ot /Oy- /D C4TEXTURE /D C4DEBUG /D C4WINDOWS /GF /Gm- /MT /GS- /Gy- /Qpar- /arch:SSE2 /fp:precise /fp:except- /Zc:wchar_t /Zc:forScope /GR- /openmp- /Fo"WIN32\DEBUG\\" /Fd"WIN32\DEBUG\VC120.PDB" /Gd /TP /analyze- D:\C4\PLUGINCODE\C4TEXTURETOOL.CPP
^D:\C4\PLUGINCODE\C4TEXTUREVIEWER.CPP
/c /I..\..\..\EngineCode /Zi /nologo /W3 /WX- /Od /Ob1 /Oi /Ot /Oy- /D C4TEXTURE /D C4DEBUG /D C4WINDOWS /GF /Gm- /MT /GS- /Gy- /Qpar- /arch:SSE2 /fp:precise /fp:except- /Zc:wchar_t /Zc:forScope /GR- /openmp- /Fo"WIN32\DEBUG\\" /Fd"WIN32\DEBUG\VC120.PDB" /Gd /TP /analyze- D:\C4\PLUGINCODE\C4TEXTUREVIEWER.CPP
